AI screening tools for systematic reviews • AIscreenR
…
# Data sets in object
price_dat <- test_obj$price_dat
price_dat
#> # A tibble: 1 × 5
#>   model     iterations input_price_dollar output_price_dollar price_total_dollar
#>   <chr>          <dbl>              <dbl>               <dbl>              <dbl>
#> 1 gpt-3.5-…          2             0.0323             0.00048             0.0328

all_dat <- test_obj$answer_data_all
all_dat |> select(human_code, decision_binary)
#> # A tibble: 22 × 2
#>    human_code decision_binary
#>         <dbl>           <dbl>
#>  1          0               0
#>  2          0               0
#>  3          0               0
#>  4          0               0
#>  5          0               0
#>  6          0               0
#>  7          0               0
#>  8          0               0
#>  9          0               0
#> 10          0               0
#> # ℹ 12 more rows
…
