…
# Data sets in object
price_dat <- test_obj$price_dat
price_dat
#> # A tibble: 1 × 4
#>   model              input_price_dollar output_price_dollar price_total_dollar
#>   <chr>                           <dbl>               <dbl>              <dbl>
#> 1 gpt-3.5-turbo-0613             0.0263             0.00052             0.0268


all_dat <- test_obj$answer_data_all
all_dat |> select(decision_gpt:n)
#> # A tibble: 22 × 6
#>    decision_gpt decision_binary prompt_tokens completion_tokens run_time     n
#>    <chr>                  <dbl>         <int>             <int>    <dbl> <int>
#>  1 1                          1          1027                11      0.7     1
#>  2 0                          0          1027                11      0.7     2
#>  3 1.1                        1           535                13      0.9     1
#>  4 1.1                        1           535                13      0.8     2
#>  5 1.1                        1           528                13      0.8     1
#>  6 1.1                        1           528                13      0.8     2
#>  7 1                          1          1141                11      0.9     1
#>  8 1.1                        1          1141                13      1.1     2
#>  9 1                          1           833                11      0.8     1
#> 10 1                          1           833                11      0.6     2
#> # ℹ 12 more rows
…
