…
# gpt-4 results (prompt 1)
sum_dat_gpt4 <- 
  result_object$answer_data_sum |> 
  filter(stringr::str_detect(model, "4") & promptid == 1)

```

```{r, include = FALSE, eval = FALSE}
sum_dat_gpt3 <- 
  result_object$answer_data_sum |> 
  filter(stringr::str_detect(model, "3"))
  
print(sum_dat_gpt3, width = 220)
#> # A tibble: 150 × 16
#>    author                                                                       
#>    <chr>                                                                        
#>  1 Holloway R G and Gramling R and Kelly A G                                    
#>  2 Morawska Alina and Stallman Helen M and Sanders Matthew R and Ralph Alan     
#>  3 Michel C M and Pascual-Marqui R D and Strik W K and Koenig T and Lehmann D   
#>  4 Paul Howard A                                                                
#>  5 Feinberg I and De Bie E and Davis N M and Campbell I G                       
#>  6 Hamburg Sam R                                                                
#>  7 Park H Y and Lee B J and Kim J H and Bae J N and Hahm B J                    
#>  8 Petrek J                                                                     
#>  9 Schwartzman Meredith P and Wahler Robert G                                   
#> 10 Faber J and Srutova L and Pilarova M and Vuckova Z and Bohmova D and Dobosov…
#>    eppi_id human_code studyid title      abstract promptid prompt model question
#>      <dbl>      <dbl>   <int> <chr>      <chr>       <int> <chr>  <chr> <chr>   
#>  1 9434957          0       1 Estimatin… "Progno…        1 "Eval… gpt-… "Evalua…
#>  2 9433838          0       2 Self-Dire… "Behavi…        1 "Eval… gpt-… "Evalua…
#>  3 9431171          0       3 Frequency… "The to…        1 "Eval… gpt-… "Evalua…
#>  4 9433968          0       4 A Review … "The ar…        1 "Eval… gpt-… "Evalua…
#>  5 9434460          0       5 Topograph… "STUDY …        1 "Eval… gpt-… "Evalua…
#>  6 9433554          0       6 BOOK REVI… "The ar…        1 "Eval… gpt-… "Evalua…
#>  7 9435130          0       7 Rapid imp… "Backgr…        1 "Eval… gpt-… "Evalua…
#>  8 9432040          0       8 Pictorial… "AIMS: …        1 "Eval… gpt-… "Evalua…
#>  9 9434093          0       9 Enhancing… "New an…        1 "Eval… gpt-… "Evalua…
#> 10 9431505          0      10 EEG spect… "Sponta…        1 "Eval… gpt-… "Evalua…
#>    top_p incl_p final_decision_gpt final_decision_gpt_num  reps n_mis_answers
#>    <dbl>  <dbl> <chr>                               <dbl> <int>         <int>
#>  1     1    0   Exclude                                 0    10             0
#>  2     1    0.8 Include                                 1    10             0
#>  3     1    0   Exclude                                 0    10             0
#>  4     1    0   Exclude                                 0    10             0
#>  5     1    0.2 Exclude                                 0    10             0
#>  6     1    0   Exclude                                 0    10             0
#>  7     1    0   Exclude                                 0    10             0
#>  8     1    0   Exclude                                 0    10             0
#>  9     1    0   Exclude                                 0    10             0
#> 10     1    0   Exclude                                 0    10             0
#> # ℹ 140 more rows
…
