Using ChatGPT for Title and Abstract Screening in Systematic Reviews • AIscreenR
…
# Check why filges2015_data and filges2015_dat differs 
filges2015_dat <- 
  bind_rows(ris_dat_excl, ris_dat_incl) |> 
  mutate(
    studyid = 1:n()
  ) |> 
  relocate(studyid, .after = eppi_id)

#?filges2015_dat
filges2015_dat
#> # A tibble: 150 × 6
#>    author                              eppi_id studyid title abstract human_code
#>    <chr>                               <chr>     <int> <chr> <chr>         <dbl>
#>  1 Holloway R G and Gramling R and Ke… 9434957       1 Esti… "Progno…          0
#>  2 Morawska Alina and Stallman Helen … 9433838       2 Self… "Behavi…          0
#>  3 Michel C M and Pascual-Marqui R D … 9431171       3 Freq… "The to…          0
#>  4 Paul Howard A                       9433968       4 A Re… "The ar…          0
#>  5 Feinberg I and De Bie E and Davis … 9434460       5 Topo… "STUDY …          0
#>  6 Hamburg Sam R                       9433554       6 BOOK… "The ar…          0
#>  7 Park H Y and Lee B J and Kim J H a… 9435130       7 Rapi… "Backgr…          0
#>  8 Petrek J                            9432040       8 Pict… "AIMS: …          0
#>  9 Schwartzman Meredith P and Wahler … 9434093       9 Enha… "New an…          0
#> 10 Faber J and Srutova L and Pilarova… 9431505      10 EEG … "Sponta…          0
#> # ℹ 140 more rows
…
