Using OpenAI’s GPT API models for Title and Abstract Screening in Systematic Reviews • AIscreenR
…
# NOTE: Find the RIS files behind this vignette at https://osf.io/kfbvu/

# Loading EXCLUDED studies
ris_dat_excl <- read_ris_to_dataframe("friends_excl.ris") |> # Add the path to your RIS file here
  as_tibble() |>
  select(author, eppi_id, title, abstract) |> # Using only relevant variables
  mutate(
    human_code = 0, #Tracking the human decision
    # Remove records without abstracts as these can distort the screening performance of the model
    across(c(author, title, abstract), ~ na_if(., "")) 
  )

ris_dat_excl
#> # A tibble: 2,765 × 5
#>   author                                                                eppi_id title abstract human_code
#>   <chr>                                                                 <chr>   <chr> <chr>         <dbl>
#> 1 Lovat C                                                               911525… "'Ba… "Postna…          0
#> 2 Kohler Maxie                                                          911023… "\"F… "The ar…          0
#> 3 Stevens Eleanor and Wood Jane                                         911020… "\"I… "'Non-o…          0
#> 4 Essau C and Conradt J and Ederer E                                    915786… "[An…  NA               0
#> 5 K<c3><a4>ssler P and Breme K                                          915784… "[Ev…  NA               0
#> 6 Brubaker Ruth B and Bay Curt and Chacon Daniel W and Carson Madelein… 911523… "93 … "Introd…          0
#> 7 Kumar Suresh and Vellymalay N                                         915785… "A C…  NA               0
#> 8 Lock S                                                                915784… "A D…  NA               0
#> 9 Bosco Nicolina and Giaccherini Susanna and Meringolo Patrizia         911019… "A g… "This a…          0
#>10 Abd El Salam, Amira E and AbdAllah Amany M and El Maghawry Hala A     911017… "Eff… "Backgr…          0
#># ℹ 2,755 more rows
#># ℹ Use `print(n = ...)` to see more rows

# Loading INCLUDED studies
ris_dat_incl <- read_ris_to_dataframe("friends_incl.ris") |> 
  suppressWarnings() |> 
  as_tibble() |>
  select(author, eppi_id, title, abstract) |>
  mutate(
    human_code = 1, #Tracking the human decision
    across(c(author, title, abstract), ~ na_if(., ""))
  )

ris_dat_incl
#> # A tibble: 97 × 5
#>   author                                                                eppi_id title abstract human_code
#>   <chr>                                                                 <chr>   <chr> <chr>         <dbl>
#> 1 G<c3><b6>kkaya Fu<cc><88>sun and Gedik Z                              915785… A Sc…  NA               1
#> 2 ACTRN12607000254493                                                   911528… Long… "INTERV…          1
#> 3 ACTRN12615000382572                                                   911528… The … "INTERV…          1
#> 4 Ahlen Johan and Breitholtz Elisabeth and Barrett Paula M and Gallego… 911544… Scho… "Anxiet…          1
#> 5 Ahlen Johan and Hursti Timo and Tanner Lindsey and Tokay Zelal and G… 911019… Prev… "Our st…          1
#> 6 Green Sarah L                                                         915785… An e…  NA               1
#> 7 Anticich Sarah A. J and Barrett Paula M and Silverman Wendy and Lach… 910111… The … "This s…          1
#> 8 Barker Leslie Jayne                                                   915785… Prev…  NA               1
#> 9 Barrett PM and Moore AF and Sonderegger R                             911527… The … "Young …          1
#>10 Barrett PM and Shortt AL and Wescombe K                               911529… Exam…  NA               1
#># ℹ 87 more rows
#># ℹ Use `print(n = ...)` to see more rows
…
incl_sample <- 
  ris_dat_incl |> 
  filter(!is.na(abstract)) |> 
  sample_references(50)

test_dat <- 
  bind_rows(excl_sample, incl_sample) |> 
  mutate(
    studyid = 1:n()
  ) |> 
  relocate(studyid, .after = eppi_id)

test_dat
#>  # A tibble: 200 × 6
#>   author             eppi_id studyid title abstract human_code
#>   <chr>              <chr>     <int> <chr> <chr>         <dbl>
#> 1 Moes and Frea Dou… 9433823       1 Usin… Studies…          0
#> 2 Flemke Kimberly R  9432288       2 The … The pur…          0
#> 3 Daniels M Harry a… 9431426       3 A Me… One of …          0
#> 4 Schwartzman Mered… 9434093       4 Enha… New ana…          0
#> 5 White Stuart F an… 9434418       5 Call… OBJECTI…          0
#> 6 Chao-kai X U and … 9432240       6 A no… To deal…          0
#> 7 Todd Thomas C      9434199       7 THE … This ar…          0
#> 8 Kinoshita O and K… 9431762       8 Spec… BACKGRO…          0
#> 9 Stratton Peter an… 9434563       9 Comp… This ar…          0
#>10 Stevens Sally and… 9434158      10 Inte… The num…          0
#># ℹ 190 more rows
#># ℹ Use `print(n = ...)` to see more rows
…
# Back to the sequential plan
plan(sequential)

We have now conducted the test screening and can get the raw results as below.

# The print output when calling the result object
result_object
#> 
#> Find the final result dataset via result_object$answer_data_aggregated

result_object$answer_data_aggregated |> 
  select(author, human_code, final_decision_gpt, final_decision_gpt_num)
#> # A tibble: 200 × 4
#>   author                                       human_code final_decision_gpt final_decision_gpt_num
#>   <chr>                                             <dbl> <chr>                               <dbl>
#> 1 Lara Elvira and Mart<c3><ad>n-Mar<c3><ad>a …          0 Exclude                                 0
#> 2 Matsumoto Manabu                                      0 Exclude                                 0
#> 3 Jordan Ann                                            0 Exclude                                 0
#> 4 Antonova E and Hamid A and Wright B and Kum…          0 Exclude                                 0
#> 5 Iafusco Dario                                         0 Exclude                                 0
#> 6 Farrell L J and Barrett P M and Claassens S           0 Include                                 1
#> 7 Rasalingam G and Rajalingam A and Chandrada…          0 Exclude                                 0
#> 8 Chappel J N and DuPont R L                            0 Exclude                                 0
#> 9 Waldrop Deborah P                                     0 Exclude                                 0
#>10 Ioana-Eva C<c4><83>dariu and Rad Dana                 0 Exclude                                 0
#># ℹ 190 more rows
#># ℹ Use `print(n = ...)` to see more rows
…
